<svg width="22" height="22" viewBox="0 0 22 22" fill="none" xmlns="http://www.w3.org/2000/svg">
<rect width="22" height="22" rx="6.6" fill="#858FB7"/>
<g clip-path="url(#clip0)">
<path d="M11.0001 12.65C11.9114 12.65 12.6501 11.9112 12.6501 11C12.6501 10.0887 11.9114 9.34998 11.0001 9.34998C10.0888 9.34998 9.3501 10.0887 9.3501 11C9.3501 11.9112 10.0888 12.65 11.0001 12.65Z" stroke="#F8FBFF" stroke-width="0.88" stroke-linecap="round" stroke-linejoin="round"/>
<path d="M15.0697 12.6501C14.9965 12.816 14.9747 13 15.007 13.1784C15.0394 13.3568 15.1244 13.5214 15.2512 13.6511L15.2842 13.6841C15.3865 13.7862 15.4676 13.9076 15.523 14.0411C15.5783 14.1746 15.6068 14.3178 15.6068 14.4623C15.6068 14.6069 15.5783 14.75 15.523 14.8836C15.4676 15.0171 15.3865 15.1384 15.2842 15.2406C15.182 15.3428 15.0607 15.424 14.9272 15.4793C14.7937 15.5347 14.6505 15.5632 14.506 15.5632C14.3614 15.5632 14.2183 15.5347 14.0847 15.4793C13.9512 15.424 13.8299 15.3428 13.7277 15.2406L13.6947 15.2076C13.5651 15.0808 13.4004 14.9957 13.222 14.9634C13.0436 14.931 12.8596 14.9529 12.6937 15.0261C12.531 15.0958 12.3923 15.2116 12.2946 15.3591C12.1969 15.5067 12.1444 15.6796 12.1437 15.8566V15.9501C12.1437 16.2418 12.0278 16.5216 11.8215 16.7279C11.6152 16.9342 11.3354 17.0501 11.0437 17.0501C10.752 17.0501 10.4722 16.9342 10.2659 16.7279C10.0596 16.5216 9.94371 16.2418 9.94371 15.9501V15.9006C9.93945 15.7185 9.88052 15.542 9.77459 15.3939C9.66865 15.2457 9.52061 15.1329 9.34971 15.0701C9.18382 14.9969 8.9998 14.975 8.82138 15.0074C8.64297 15.0397 8.47833 15.1248 8.34871 15.2516L8.31571 15.2846C8.21355 15.3868 8.09223 15.468 7.95869 15.5233C7.82515 15.5787 7.68201 15.6072 7.53746 15.6072C7.3929 15.6072 7.24976 15.5787 7.11622 15.5233C6.98268 15.468 6.86137 15.3868 6.75921 15.2846C6.65693 15.1824 6.5758 15.0611 6.52044 14.9276C6.46508 14.794 6.43659 14.6509 6.43659 14.5063C6.43659 14.3618 6.46508 14.2186 6.52044 14.0851C6.5758 13.9516 6.65693 13.8302 6.75921 13.7281L6.79221 13.6951C6.919 13.5654 7.00406 13.4008 7.03641 13.2224C7.06876 13.044 7.04692 12.86 6.97371 12.6941C6.90399 12.5314 6.78822 12.3927 6.64066 12.2949C6.4931 12.1972 6.32019 12.1448 6.14321 12.1441H6.04971C5.75797 12.1441 5.47818 12.0282 5.27189 11.8219C5.0656 11.6156 4.94971 11.3358 4.94971 11.0441C4.94971 10.7523 5.0656 10.4725 5.27189 10.2663C5.47818 10.06 5.75797 9.94407 6.04971 9.94407H6.09921C6.28125 9.93982 6.45781 9.88089 6.60592 9.77495C6.75403 9.66902 6.86685 9.52098 6.92971 9.35007C7.00292 9.18418 7.02476 9.00017 6.99241 8.82175C6.96006 8.64333 6.875 8.4787 6.74821 8.34907L6.71521 8.31607C6.61293 8.21391 6.5318 8.0926 6.47644 7.95906C6.42108 7.82552 6.39259 7.68238 6.39259 7.53782C6.39259 7.39327 6.42108 7.25013 6.47644 7.11659C6.5318 6.98305 6.61293 6.86173 6.71521 6.75957C6.81737 6.6573 6.93868 6.57616 7.07222 6.52081C7.20576 6.46545 7.3489 6.43696 7.49346 6.43696C7.63801 6.43696 7.78115 6.46545 7.91469 6.52081C8.04823 6.57616 8.16955 6.6573 8.27171 6.75957L8.30471 6.79257C8.43433 6.91937 8.59897 7.00443 8.77738 7.03678C8.9558 7.06913 9.13982 7.04729 9.30571 6.97407H9.34971C9.51238 6.90435 9.65112 6.78859 9.74884 6.64103C9.84656 6.49347 9.899 6.32056 9.89971 6.14357V6.05007C9.89971 5.75834 10.0156 5.47855 10.2219 5.27226C10.4282 5.06597 10.708 4.95007 10.9997 4.95007C11.2914 4.95007 11.5712 5.06597 11.7775 5.27226C11.9838 5.47855 12.0997 5.75834 12.0997 6.05007V6.09957C12.1004 6.27656 12.1529 6.44947 12.2506 6.59703C12.3483 6.74459 12.487 6.86035 12.6497 6.93007C12.8156 7.00329 12.9996 7.02513 13.178 6.99278C13.3564 6.96043 13.5211 6.87537 13.6507 6.74857L13.6837 6.71557C13.7859 6.6133 13.9072 6.53216 14.0407 6.47681C14.1743 6.42145 14.3174 6.39296 14.462 6.39296C14.6065 6.39296 14.7497 6.42145 14.8832 6.47681C15.0167 6.53216 15.138 6.6133 15.2402 6.71557C15.3425 6.81773 15.4236 6.93905 15.479 7.07259C15.5343 7.20613 15.5628 7.34927 15.5628 7.49382C15.5628 7.63838 15.5343 7.78152 15.479 7.91506C15.4236 8.0486 15.3425 8.16991 15.2402 8.27207L15.2072 8.30507C15.0804 8.4347 14.9954 8.59933 14.963 8.77775C14.9307 8.95617 14.9525 9.14018 15.0257 9.30607V9.35007C15.0954 9.51275 15.2112 9.65148 15.3588 9.7492C15.5063 9.84693 15.6792 9.89937 15.8562 9.90007H15.9497C16.2414 9.90007 16.5212 10.016 16.7275 10.2223C16.9338 10.4285 17.0497 10.7083 17.0497 11.0001C17.0497 11.2918 16.9338 11.5716 16.7275 11.7779C16.5212 11.9842 16.2414 12.1001 15.9497 12.1001H15.9002C15.7232 12.1008 15.5503 12.1532 15.4028 12.2509C15.2552 12.3487 15.1394 12.4874 15.0697 12.6501V12.6501Z" stroke="#F8FBFF" stroke-width="0.88" stroke-linecap="round" stroke-linejoin="round"/>
</g>
<defs>
<clipPath id="clip0">
<rect width="13.2" height="13.2" fill="white" transform="translate(4.3999 4.40002)"/>
</clipPath>
</defs>
</svg>
