<svg width="30" height="30" viewBox="0 0 30 30" fill="none" xmlns="http://www.w3.org/2000/svg">
<ellipse cx="14.6429" cy="15" rx="14.6429" ry="15" fill="#B7CEFF"/>
<path d="M10.5 9.5H20.5C21.1875 9.5 21.75 10.0625 21.75 10.75V18.25C21.75 18.9375 21.1875 19.5 20.5 19.5H10.5C9.8125 19.5 9.25 18.9375 9.25 18.25V10.75C9.25 10.0625 9.8125 9.5 10.5 9.5Z" stroke="#5060F7" stroke-width="2" stroke-linecap="round" stroke-linejoin="round"/>
<path d="M21.75 10.75L15.5 15.125L9.25 10.75" stroke="#5060F7" stroke-width="2" stroke-linecap="round" stroke-linejoin="round"/>
</svg>
