<svg width="30" height="30" viewBox="0 0 30 30" fill="none" xmlns="http://www.w3.org/2000/svg">
<circle cx="15" cy="15" r="15" fill="#B7CEFF"/>
<path d="M10.6667 19.125V14.75" stroke="#5060F7" stroke-width="2" stroke-linecap="round" stroke-linejoin="round"/>
<path d="M10.6667 12.25V7.875" stroke="#5060F7" stroke-width="2" stroke-linecap="round" stroke-linejoin="round"/>
<path d="M16 19.125V13.5" stroke="#5060F7" stroke-width="2" stroke-linecap="round" stroke-linejoin="round"/>
<path d="M16 11V7.875" stroke="#5060F7" stroke-width="2" stroke-linecap="round" stroke-linejoin="round"/>
<path d="M21.3333 19.125V16" stroke="#5060F7" stroke-width="2" stroke-linecap="round" stroke-linejoin="round"/>
<path d="M21.3333 13.5V7.875" stroke="#5060F7" stroke-width="2" stroke-linecap="round" stroke-linejoin="round"/>
<path d="M8.66666 14.75H12.6667" stroke="#5060F7" stroke-width="2" stroke-linecap="round" stroke-linejoin="round"/>
<path d="M14 11H18" stroke="#5060F7" stroke-width="2" stroke-linecap="round" stroke-linejoin="round"/>
<path d="M19.3333 16H23.3333" stroke="#5060F7" stroke-width="2" stroke-linecap="round" stroke-linejoin="round"/>
</svg>
